# Blender v2.69 (sub 0) OBJ File: 'bed.blend'
# www.blender.org
mtllib bed.mtl
o Cube.001
v 1.946644 -0.043765 1.058948
v 1.946644 -0.043765 0.958948
v 2.046644 -0.043765 0.958948
v 2.046644 -0.043765 1.058948
v 1.946644 0.956235 1.058948
v 1.946644 0.956235 0.958948
v 2.046644 0.956235 0.958948
v 2.046644 0.956235 1.058948
usemtl None
s off
f 5 6 2 1
f 6 7 3 2
f 7 8 4 3
f 8 5 1 4
f 1 2 3 4
f 8 7 6 5
o Cube
v 1.999999 0.587501 -0.999999
v 1.999999 0.587501 1.000000
v -1.999999 0.587501 0.999999
v -1.999998 0.587501 -1.000000
v 2.000000 0.887501 -0.999999
v 1.999998 0.887501 1.000000
v -2.000000 0.887501 0.999999
v -1.999999 0.887501 -1.000000
usemtl Material
s off
f 9 10 11 12
f 13 16 15 14
f 9 13 14 10
f 10 14 15 11
f 11 15 16 12
f 13 9 12 16
o Cube.002
v 1.946644 -0.043765 -0.945170
v 1.946644 -0.043765 -1.045170
v 2.046644 -0.043765 -1.045170
v 2.046644 -0.043765 -0.945170
v 1.946644 0.956235 -0.945170
v 1.946644 0.956235 -1.045170
v 2.046644 0.956235 -1.045170
v 2.046644 0.956235 -0.945170
usemtl None
s off
f 21 22 18 17
f 22 23 19 18
f 23 24 20 19
f 24 21 17 20
f 17 18 19 20
f 24 23 22 21
o Cube.003
v -2.037560 -0.043765 1.058948
v -2.037560 -0.043765 0.958948
v -1.937560 -0.043765 0.958948
v -1.937560 -0.043765 1.058948
v -2.037560 0.956235 1.058948
v -2.037560 0.956235 0.958948
v -1.937560 0.956235 0.958948
v -1.937560 0.956235 1.058948
usemtl None
s off
f 29 30 26 25
f 30 31 27 26
f 31 32 28 27
f 32 29 25 28
f 25 26 27 28
f 32 31 30 29
o Cube.004
v -2.037560 -0.043765 -0.945170
v -2.037560 -0.043765 -1.045171
v -1.937560 -0.043765 -1.045171
v -1.937560 -0.043765 -0.945170
v -2.037560 0.956235 -0.945170
v -2.037560 0.956235 -1.045171
v -1.937560 0.956235 -1.045171
v -1.937560 0.956235 -0.945170
usemtl None
s off
f 37 38 34 33
f 38 39 35 34
f 39 40 36 35
f 40 37 33 36
f 33 34 35 36
f 40 39 38 37
